{
    "brotherhood": [
        { 
            "name": "Aleksander",
            "moxfield": {
                "id": "Xanderalek",
                "decks": {
                    "Anhelo, the Painter": "https://www.moxfield.com/decks/9KGV5heZAU2v4aNdA9Azzw",
                    "Dihada, Binder of Wills": "https://www.moxfield.com/decks/W9OffORkkUOWG-m6niYdVQ",
                    "Ghyrson Starn, Kelermorph": "https://www.moxfield.com/decks/EakrzE6hlEeGyvvqSS_lng",
                    "Imotekh the Stormlord": "https://www.moxfield.com/decks/A75Myl55XU6ClV_ErOce9A",
                    "Magus Lucea Kane": "https://www.moxfield.com/decks/ufitWnViBkmnQLBaBvcVTQ",
                    "Zellix, Sanity Flayer + Haunted One": "https://www.moxfield.com/decks/QYLYLV3NTEKZNy9UEq6BQw"
                }
            }
        },
        { 
            "name": "Jagimir",
            "deckbox": { "collection": "2050228", "wants": "2050230" },
            "moxfield": {
                "id": "Yarghuzzz",
                "decks": {
                    "Alela, Artful Provocateur": "https://www.moxfield.com/decks/Nl3sfNOmmUurRXRbAQSZuA",
                    "Arixmethes, Slumbering Isle": "https://www.moxfield.com/decks/xIYDwQSnGkKLqx98xDgrfQ",
                    "Saheeli, the Gifted": "https://www.moxfield.com/decks/ps8aRZKvjU2Sm--AjFJymg",
                    "Sygg, River Cutthroat": "https://www.moxfield.com/decks/7pTB9olpNkmcvgUuixW2mA"
                }
            }
        },
        {
            "name": "Neobemus",
            "deckbox": { "collection": "1919664", "wants": "1919666" },
            "moxfield": {
                "id": "Neobemus",
                "decks": {
                    "Edric, Spymaster of Trest": "https://www.moxfield.com/decks/qq_UDjOsPkK2KXkokUYvpQ",
                    "Feather, the Redeemed": "https://www.moxfield.com/decks/ANdcBneffkm1HDsC7QMH_g",
                    "Ghen, Arcanum Weaver": "https://www.moxfield.com/decks/IaqjElN8V0OhyV_MuEVlmA",
                    "Hallar, the Firefletcher": "https://www.moxfield.com/decks/Rznzo2PqGkGtVRFkjtMZQg",
                    "Heliod, Sun-Crowned": "https://www.moxfield.com/decks/yKZmvrU8z0agvZKkGO5T3w",
                    "Hogaak, Arisen Necropolis": "https://www.moxfield.com/decks/o_muj60WuECbXRYeFRn4qg",
                    "Jared Carthalion, True Heir": "https://www.moxfield.com/decks/MLMV67U6GUalODSIwe-5VA",
                    "Kalamax, the Stormsire": "https://www.moxfield.com/decks/DqVx5H1oU0uG1sYGGG5HPQ",
                    "Karametra, God of Harvests": "https://www.moxfield.com/decks/ZAaygTyEzkmUCAYnpdk0Pw",
                    "Kozilek, the Great Distortion": "https://www.moxfield.com/decks/FQ9OS9tiRk6hBKmIK7hqLg",
                    "Krenko, Mob Boss": "https://www.moxfield.com/decks/0GImvub6KE6nDR7PbRdJxw",
                    "Kumena, Tyrant of Orazca": "https://www.moxfield.com/decks/q6YOFW5U8kWgnM0-BvEwaw",
                    "Kwain, Itinerant Meddler": "https://www.moxfield.com/decks/Ax2tmErnS0-Pmwq5TN_-Fg",
                    "Marwyn, the Nurturer": "https://www.moxfield.com/decks/8423WJFMRk-pUiRPd2ksBg",
                    "Naban, Dean of Iteration": "https://www.moxfield.com/decks/R8tN9cS0CkqU4qF2ZVbLGg",
                    "Ramses, Assassin Lord": "https://www.moxfield.com/decks/SzJCMxxmmkOPoiyjMl9OWQ",
                    "Talrand, Sky Summoner": "https://www.moxfield.com/decks/stApPFWOME-01jIvBsDzJw",
                    "The First Sliver": "https://www.moxfield.com/decks/rHYXdSLwCEOhB283GEiPdw",
                    "Yawgmoth, Thran Physician": "https://www.moxfield.com/decks/hQcCZpNl-E-VG63FT3kdFg"
                }
            }
        },
        { "name": "Oliwier", "deckbox": { "collection": "2086652", "wants": "2086654" } },
        {
            "name": "Kuba",
            "moxfield": {
                "id": "error_4044",
                "decks": {
                    "Kadena, Slinking Sorcerer": "https://www.moxfield.com/decks/Ig8FEe9MjkiiiDTgu2aAzQ",
                    "Karlach, Fury of Avernus + Hardy Outlander": "https://www.moxfield.com/decks/gNt9P17lXESO2K6T-2eQjA"
                }
            }
        },
        {
            "name": "Tomasz",
            "moxfield": {
                "id": "Tomdal",
                "decks": {
                    "Anje Falkenrath": "https://www.moxfield.com/decks/du62dMazWEyNilE0_YHn3A",
                    "Ashnod the Uncaring": "https://www.moxfield.com/decks/ZtwkFtEK4kiaP6WytKfLWg",
                    "Lathril, Blade of the Elves": "https://www.moxfield.com/decks/FsxNLeuhIU-bFKgAZMaopQ",
                    "Teysa Karlov": "https://www.moxfield.com/decks/tnD8w4ZfQk2WwNev3DF8ew"
                }
            }
        },
        {
            "name": "Yaceek",
            "deckbox": { "collection": "8934", "wants": "8936" },
            "moxfield": {
                "id": "yaceek",
                "decks": {
                    "Anje Falkenrath": "https://www.moxfield.com/decks/IbHekiN1H06UeOxP2AQ-3A",
                    "Brago, King Eternal": "https://www.moxfield.com/decks/8TBbIJpEjE6lLpO4sIG5VA",
                    "Carth, the Lion": "https://www.moxfield.com/decks/MSDPhhM6ckSjsWs9FSEhkA",
                    "Niv-Mizzet, Parun": "https://www.moxfield.com/decks/_yjFL685-0SW7mWSdxxMNg",
                    "Rograkh, Son of Rohgahh + Ardenn, Intrepid Archaeologist": "https://www.moxfield.com/decks/-PMbYxv72keQJXZ7Bu-xAg",
                    "Siona, Captain of the Pyleas": "https://www.moxfield.com/decks/ugHQHrV7DEGKyBEJc5XxXQ",
                    "Strefan, Maurer Proenitor": "https://www.moxfield.com/decks/qiRAsbb8wE6mVckdbnpJ6g",
                    "Teshar, Ancestor's Apostle": "https://www.moxfield.com/decks/EoEFaNank06zBnbDSGwwRg",
                    "Toshiro Umezawa": "https://www.moxfield.com/decks/wYp7CBAXWkOpu1rJqEcqdg",
                    "Wilhelt, the Rotcleaver": "https://www.moxfield.com/decks/IPO5cQy1EEu_eHPwgqM2Gw",
                    "Zada, Hedron Grinder": "https://www.moxfield.com/decks/3z3dODUJ20CtJgz1N6E5sQ"
                }
            }
        }
    ],
    "games": [
        {
            "date": "2021-04-29",
            "players": [
                { "name": "Neobemus", "deck": "Naban, Dean of Iteration", "winner": false },
                { "name": "Oliwier",  "deck": "Slimefoot, the Stowaway",  "winner": false },
                { "name": "Yaceek",   "deck": "Anje Falkenrath",          "winner": true  }
            ]
        },
        {
            "date": "2021-04-29",
            "players": [
                { "name": "Neobemus", "deck": "Naban, Dean of Iteration", "winner": false },
                { "name": "Oliwier",  "deck": "Slimefoot, the Stowaway",  "winner": false },
                { "name": "Yaceek",   "deck": "Anje Falkenrath",          "winner": true  }
            ]
        },
        {
            "date": "2021-05-06",
            "players": [
                { "name": "Jagimir",  "deck": "Urza, Lord High Artificer",                                "winner": false },
                { "name": "Neobemus", "deck": "Zur the Enchanter",                                        "winner": true  },
                { "name": "Yaceek",   "deck": "Rograkh, Son of Rohgahh + Ardenn, Intrepid Archaeologist", "winner": false }
            ]
        },
        {
            "date": "2021-05-06",
            "players": [
                { "name": "Jagimir",  "deck": "Urza, Lord High Artificer",                                "winner": false },
                { "name": "Neobemus", "deck": "Zur the Enchanter",                                        "winner": false },
                { "name": "Yaceek",   "deck": "Rograkh, Son of Rohgahh + Ardenn, Intrepid Archaeologist", "winner": true  }
            ]
        },
        {
            "date": "2021-05-14",
            "players": [
                { "name": "Jagimir",  "deck": "Brion Stoutarm",          "winner": false },
                { "name": "Neobemus", "deck": "Ghalta, Primal Hunger",   "winner": true  },
                { "name": "Oliwier",  "deck": "Slimefoot, the Stowaway", "winner": false },
                { "name": "Yaceek",   "deck": "Zada, Hedron Grinder",    "winner": false }
            ]
        },
        {
            "date": "2021-05-14",
            "players": [
                { "name": "Jagimir",  "deck": "Brion Stoutarm",          "winner": false },
                { "name": "Neobemus", "deck": "Ghalta, Primal Hunger",   "winner": false },
                { "name": "Oliwier",  "deck": "Slimefoot, the Stowaway", "winner": false },
                { "name": "Yaceek",   "deck": "Zada, Hedron Grinder",    "winner": true  }
            ]
        },
        {
            "date": "2021-05-20",
            "players": [
                { "name": "Jagimir",  "deck": "Ilharg, the Raze-Boar",        "winner": false },
                { "name": "Neobemus", "deck": "Edric, Spymaster of Trest",    "winner": true  },
                { "name": "Oliwier",  "deck": "Slimefoot, the Stowaway",      "winner": false },
                { "name": "Yaceek",   "deck": "Siona, Captain of the Pyleas", "winner": false }
            ]
        },
        {
            "date": "2021-05-20",
            "players": [
                { "name": "Jagimir",  "deck": "Ilharg, the Raze-Boar",        "winner": false },
                { "name": "Neobemus", "deck": "Edric, Spymaster of Trest",    "winner": false },
                { "name": "Oliwier",  "deck": "Slimefoot, the Stowaway",      "winner": true  },
                { "name": "Yaceek",   "deck": "Siona, Captain of the Pyleas", "winner": false }
            ]
        },
        {
            "date": "2021-05-27",
            "players": [
                { "name": "Jagimir",  "deck": "Ilharg, the Raze-Boar",     "winner": false },
                { "name": "Neobemus", "deck": "Hogaak, Arisen Necropolis", "winner": false },
                { "name": "Oliwier",  "deck": "Slimefoot, the Stowaway",   "winner": false },
                { "name": "Yaceek",   "deck": "Brago, King Eternal",       "winner": true  }
            ]
        },
        {
            "date": "2021-05-27",
            "players": [
                { "name": "Jagimir",  "deck": "Sarulf, Realm Eater",   "winner": false },
                { "name": "Neobemus", "deck": "Ghalta, Primal Hunger", "winner": false },
                { "name": "Yaceek",   "deck": "Brago, King Eternal",   "winner": true  }
            ]
        },
        {
            "date": "2021-06-10",
            "players": [
                { "name": "Jagimir",  "deck": "Sarulf, Realm Eater",          "winner": false },
                { "name": "Neobemus", "deck": "Kwain, Itinerant Meddler",     "winner": true  },
                { "name": "Oliwier",  "deck": "Lazav, the Multifarious",      "winner": false },
                { "name": "Yaceek",   "deck": "Siona, Captain of the Pyleas", "winner": false }
            ]
        },
        {
            "date": "2021-06-10",
            "players": [
                { "name": "Jagimir",  "deck": "Sarulf, Realm Eater",          "winner": false },
                { "name": "Neobemus", "deck": "Hogaak, Arisen Necropolis",    "winner": false },
                { "name": "Yaceek",   "deck": "Siona, Captain of the Pyleas", "winner": true  }
            ]
        },
        {
            "date": "2021-06-18",
            "players": [
                { "name": "Jagimir",  "deck": "Ilharg, the Raze-Boar",  "winner": false },
                { "name": "Neobemus", "deck": "Kalamax, the Stormsire", "winner": false },
                { "name": "Yaceek",   "deck": "Niv-Mizzet, Parun",      "winner": true  }
            ]
        },
        {
            "date": "2021-06-18",
            "players": [
                { "name": "Jagimir",  "deck": "Sarulf, Realm Eater",       "winner": false },
                { "name": "Neobemus", "deck": "Yawgmoth, Thran Physician", "winner": true  },
                { "name": "Oliwier",  "deck": "Slimefoot, the Stowaway",   "winner": false },
                { "name": "Yaceek",   "deck": "Anje Falkenrath",           "winner": false }
            ]
        },
        {
            "date": "2021-07-30",
            "players": [
                { "name": "Jagimir",  "deck": "Urza, Lord High Artificer", "winner": false },
                { "name": "Neobemus", "deck": "Edric, Spymaster of Trest", "winner": true  },
                { "name": "Oliwier",  "deck": "Slimefoot, the Stowaway",   "winner": false }
            ]
        },
        {
            "date": "2021-07-30",
            "players": [
                { "name": "Jagimir",  "deck": "Urza, Lord High Artificer", "winner": false },
                { "name": "Neobemus", "deck": "Edric, Spymaster of Trest", "winner": true  },
                { "name": "Oliwier",  "deck": "Slimefoot, the Stowaway",   "winner": false }
            ]
        },
        {
            "date": "2021-07-30",
            "players": [
                { "name": "Jagimir",  "deck": "Ilharg, the Raze-Boar",     "winner": false },
                { "name": "Neobemus", "deck": "Hogaak, Arisen Necropolis", "winner": true  },
                { "name": "Oliwier",  "deck": "Lazav, the Multifarious",   "winner": false }
            ]
        },
        {
            "date": "2021-07-31",
            "players": [
                { "name": "Jagimir",  "deck": "Ilharg, the Raze-Boar",         "winner": false },
                { "name": "Neobemus", "deck": "Edric, Spymaster of Trest",     "winner": false },
                { "name": "Grzesiek", "deck": "Meren of Clan Nel Toth",        "winner": true  },
                { "name": "Krzysiek", "deck": "Kozilek, the Great Distortion", "winner": false }
            ]
        },
        {
            "date": "2021-07-31",
            "players": [
                { "name": "Jagimir",  "deck": "Ilharg, the Raze-Boar",         "winner": false },
                { "name": "Neobemus", "deck": "Edric, Spymaster of Trest",     "winner": true  },
                { "name": "Grzesiek", "deck": "Omnath, Locus of Rage",         "winner": false },
                { "name": "Krzysiek", "deck": "Kozilek, the Great Distortion", "winner": false }
            ]
        },
        {
            "date": "2021-07-31",
            "players": [
                { "name": "Jagimir",  "deck": "Urza, Lord High Artificer",     "winner": false },
                { "name": "Neobemus", "deck": "Hogaak, Arisen Necropolis",     "winner": false },
                { "name": "Grzesiek", "deck": "Omnath, Locus of Rage",         "winner": true  },
                { "name": "Krzysiek", "deck": "Kozilek, the Great Distortion", "winner": false }
            ]
        },
        {
            "date": "2021-08-06",
            "players": [
                { "name": "Jagimir",  "deck": "Ilharg, the Raze-Boar",    "winner": false },
                { "name": "Neobemus", "deck": "Kwain, Itinerant Meddler", "winner": false },
                { "name": "Inka",     "deck": "Ghalta, Primal Hunger",    "winner": true  },
                { "name": "Yaceek",   "deck": "Jirina Kudro",             "winner": false }
            ]
        },
        {
            "date": "2021-08-06",
            "players": [
                { "name": "Jagimir",  "deck": "Ilharg, the Raze-Boar",                                     "winner": false },
                { "name": "Neobemus", "deck": "Kwain, Itinerant Meddler",                                  "winner": true  },
                { "name": "Inka",     "deck": "Ghalta, Primal Hunger",                                     "winner": false },
                { "name": "Yaceek",   "deck": "Trynn, Champion of Freedom + Silvar, Devourer of the Free", "winner": false }
            ]
        },
        {
            "date": "2021-08-20",
            "players": [
                { "name": "Kasia",    "deck": "Toshiro Umezawa",           "winner": false },
                { "name": "Inka",     "deck": "Ghalta, Primal Hunger",     "winner": false },
                { "name": "Neobemus", "deck": "Edric, Spymaster of Trest", "winner": false },
                { "name": "Yaceek",   "deck": "Niv-Mizzet, Parun",         "winner": true  }
            ]
        },
        {
            "date": "2021-08-21",
            "players": [
                { "name": "Kasia",    "deck": "Ghalta, Primal Hunger",     "winner": false },
                { "name": "Neobemus", "deck": "Kwain, Itinerant Meddler",  "winner": true  },
                { "name": "Inka",     "deck": "Edric, Spymaster of Trest", "winner": false },
                { "name": "Yaceek",   "deck": "Koll, the Forgemaster",     "winner": false }
            ]
        },
        {
            "date": "2021-09-10",
            "players": [
                { "name": "Jagimir",  "deck": "Yuriko, the Tiger's Shadow", "winner": false },
                { "name": "Neobemus", "deck": "Feather, the Redeemed",      "winner": false },
                { "name": "Oliwier",  "deck": "Lazav, the Multifarious",    "winner": false },
                { "name": "Yaceek",   "deck": "Toshiro Umezawa",            "winner": true  }
            ]
        },
        {
            "date": "2021-09-24",
            "players": [
                { "name": "Jagimir",  "deck": "Yuriko, the Tiger's Shadow", "winner": false },
                { "name": "Neobemus", "deck": "Feather, the Redeemed",      "winner": false },
                { "name": "Oliwier",  "deck": "Lazav, the Multifarious",    "winner": false },
                { "name": "Yaceek",   "deck": "Wilhelt, the Rotcleaver",    "winner": true  }
            ]
        },
        {
            "date": "2021-10-04",
            "players": [
                { "name": "Jagimir",  "deck": "Yuriko, the Tiger's Shadow",   "winner": false },
                { "name": "Neobemus", "deck": "The Scarab God",               "winner": false },
                { "name": "Oliwier",  "deck": "Lazav, the Multifarious",      "winner": true  },
                { "name": "Yaceek",   "deck": "Siona, Captain of the Pyleas", "winner": false }
            ]
        },
        {
            "date": "2021-10-04",
            "players": [
                { "name": "Jagimir",  "deck": "Ilharg, the Raze-Boar",   "winner": false },
                { "name": "Neobemus", "deck": "The Scarab God",          "winner": false },
                { "name": "Oliwier",  "deck": "Slimefoot, the Stowaway", "winner": false },
                { "name": "Yaceek",   "deck": "Zada, Hedron Grinder",    "winner": true  }
            ]
        },
        {
            "date": "2021-10-15",
            "players": [
                { "name": "Jagimir",  "deck": "Yuriko, the Tiger's Shadow", "winner": true  },
                { "name": "Neobemus", "deck": "Feather, the Redeemed",      "winner": false },
                { "name": "Oliwier",  "deck": "Slimefoot, the Stowaway",    "winner": false }
            ]
        },
        {
            "date": "2021-10-15",
            "players": [
                { "name": "Jagimir",  "deck": "Yuriko, the Tiger's Shadow", "winner": true  },
                { "name": "Neobemus", "deck": "Kalamax, the Stormsire",     "winner": false },
                { "name": "Oliwier",  "deck": "Slimefoot, the Stowaway",    "winner": false }
            ]
        },
        {
            "date": "2021-10-15",
            "players": [
                { "name": "Jagimir",  "deck": "Yuriko, the Tiger's Shadow",    "winner": false },
                { "name": "Neobemus", "deck": "Heliod, Sun-Crowned",           "winner": true  },
                { "name": "Oliwier",  "deck": "Slimefoot, the Stowaway",       "winner": false },
                { "name": "Krzysiek", "deck": "Kozilek, the Great Distortion", "winner": false }
            ]
        },
        {
            "date": "2021-11-26",
            "players": [
                { "name": "Jagimir",  "deck": "Damia, Sage of Stone",       "winner": false },
                { "name": "Neobemus", "deck": "The Scarab God",             "winner": true  },
                { "name": "Oliwier",  "deck": "Muldrotha, the Gravetide",   "winner": false },
                { "name": "Yaceek",   "deck": "Strefan, Maurer Progenitor", "winner": false }
            ]
        },
        {
            "date": "2021-12-09",
            "players": [
                { "name": "Jagimir",  "deck": "Damia, Sage of Stone",       "winner": false },
                { "name": "Neobemus", "deck": "Zur the Enchanter",          "winner": true  },
                { "name": "Oliwier",  "deck": "Muldrotha, the Gravetide",   "winner": false },
                { "name": "Yaceek",   "deck": "Strefan, Maurer Progenitor", "winner": false }
            ]
        },
        {
            "date": "2021-12-09",
            "players": [
                { "name": "Jagimir",  "deck": "Damia, Sage of Stone",       "winner": false },
                { "name": "Neobemus", "deck": "Hogaak, Arisen Necropolis",  "winner": false },
                { "name": "Oliwier",  "deck": "Muldrotha, the Gravetide",   "winner": false },
                { "name": "Yaceek",   "deck": "Strefan, Maurer Progenitor", "winner": true  }
            ]
        },
        {
            "date": "2022-01-13",
            "players": [
                { "name": "Jagimir",  "deck": "Yuriko, the Tiger's Shadow",                               "winner": false },
                { "name": "Neobemus", "deck": "Talrand, Sky Summoner",                                    "winner": false },
                { "name": "Oliwier",  "deck": "Muldrotha, the Gravetide",                                 "winner": true  },
                { "name": "Yaceek",   "deck": "Rograkh, Son of Rohgahh + Ardenn, Intrepid Archaeologist", "winner": false }
            ]
        },
        {
            "date": "2022-01-27",
            "players": [
                { "name": "Jagimir",  "deck": "Damia, Sage of Stone",     "winner": false },
                { "name": "Neobemus", "deck": "Ghen, Arcanum Weaver",     "winner": true  },
                { "name": "Oliwier",  "deck": "Muldrotha, the Gravetide", "winner": false },
                { "name": "Yaceek",   "deck": "Sythis, Harvest's Hand",   "winner": false }
            ]
        },
        {
            "date": "2022-02-10",
            "players": [
                { "name": "Jagimir",  "deck": "Jorn, God of Winter // Kaldring, the Rimestaff", "winner": false },
                { "name": "Neobemus", "deck": "Krenko, Mob Boss",                               "winner": true  },
                { "name": "Oliwier",  "deck": "Slimefoot, the Stowaway",                        "winner": false }
            ]
        },
        {
            "date": "2022-02-10",
            "players": [
                { "name": "Jagimir",  "deck": "Sygg, River Cutthroat",    "winner": false },
                { "name": "Neobemus", "deck": "Naban, Dean of Iteration", "winner": true  },
                { "name": "Oliwier",  "deck": "Slimefoot, the Stowaway",  "winner": false }
            ]
        },
        {
            "date": "2022-02-24",
            "players": [
                { "name": "Jagimir",  "deck": "Jorn, God of Winter // Kaldring, the Rimestaff", "winner": false },
                { "name": "Neobemus", "deck": "Talrand, Sky Summoner",                          "winner": false },
                { "name": "Oliwier",  "deck": "Slimefoot, the Stowaway",                        "winner": true  },
                { "name": "Yaceek",   "deck": "Wilhelt, the Rotcleaver",                        "winner": false }
            ]
        },
        {
            "date": "2022-03-10",
            "players": [
                { "name": "Jagimir",  "deck": "Queen Marchesa",            "winner": false },
                { "name": "Neobemus", "deck": "Edric, Spymaster of Trest", "winner": false },
                { "name": "Yaceek",   "deck": "Niv-Mizzet, Parun",         "winner": true  }
            ]
        },
        {
            "date": "2022-03-10",
            "players": [
                { "name": "Jagimir",  "deck": "Queen Marchesa",            "winner": false },
                { "name": "Neobemus", "deck": "Yawgmoth, Thran Physician", "winner": true  },
                { "name": "Yaceek",   "deck": "Niv-Mizzet, Parun",         "winner": false }
            ]
        },
        {
            "date": "2022-03-17",
            "players": [
                { "name": "Neobemus", "deck": "Kwain, Itinerant Meddler",   "winner": false },
                { "name": "Oliwier",  "deck": "Slimefoot, the Stowaway",    "winner": true  },
                { "name": "Yaceek",   "deck": "Strefan, Maurer Progenitor", "winner": false }
            ]
        },
        {
            "date": "2022-03-24",
            "players": [
                { "name": "Jagimir",  "deck": "Arixmethes, Slumbering Isle",                              "winner": true  },
                { "name": "Neobemus", "deck": "Kwain, Itinerant Meddler",                                 "winner": false },
                { "name": "Tomasz",   "deck": "Teysa Karlov",                                             "winner": false },
                { "name": "Yaceek",   "deck": "Rograkh, Son of Rohgahh + Ardenn, Intrepid Archaeologist", "winner": false }
            ]
        },
        {
            "date": "2022-03-24",
            "players": [
                { "name": "Jagimir",  "deck": "Arixmethes, Slumbering Isle",                              "winner": false },
                { "name": "Neobemus", "deck": "Kwain, Itinerant Meddler",                                 "winner": false },
                { "name": "Tomasz",   "deck": "Teysa Karlov",                                             "winner": true  },
                { "name": "Yaceek",   "deck": "Rograkh, Son of Rohgahh + Ardenn, Intrepid Archaeologist", "winner": false }
            ]
        },
        {
            "date": "2022-03-31",
            "players": [
                { "name": "Jagimir",  "deck": "Arixmethes, Slumbering Isle", "winner": false },
                { "name": "Neobemus", "deck": "Kumena, Tyrant of Orazca",    "winner": false },
                { "name": "Oliwier",  "deck": "Muldrotha, the Gravetide",    "winner": true  }
            ]
        },
        {
            "date": "2022-04-07",
            "players": [
                { "name": "Jagimir",  "deck": "Yuriko, the Tiger's Shadow",    "winner": false },
                { "name": "Neobemus", "deck": "Kozilek, the Great Distortion", "winner": true  },
                { "name": "Oliwier",  "deck": "Muldrotha, the Gravetide",      "winner": false },
                { "name": "Yaceek",   "deck": "Anje Falkenrath",               "winner": false }
            ]
        },
        {
            "date": "2022-04-21",
            "players": [
                { "name": "Jagimir",  "deck": "Chulane, Teller of Tales", "winner": false },
                { "name": "Neobemus", "deck": "Feather, the Redeemed",    "winner": false },
                { "name": "Oliwier",  "deck": "Muldrotha, the Gravetide", "winner": false },
                { "name": "Yaceek",   "deck": "Niv-Mizzet, Parun",        "winner": true  }
            ]
        },
        {
            "date": "2022-05-05",
            "players": [
                { "name": "Jagimir", "deck": "Chulane, Teller of Tales", "winner": true  },
                { "name": "Oliwier", "deck": "Muldrotha, the Gravetide", "winner": false },
                { "name": "Yaceek",  "deck": "Zada, Hedron Grinder",     "winner": false }
            ]
        },
        {
            "date": "2022-05-16",
            "players": [
                { "name": "Aleksander", "deck": "Anhelo, the Painter",     "winner": false },
                { "name": "Kuba",       "deck": "Krydle of Baldur's Gate", "winner": false },
                { "name": "Neobemus",   "deck": "Krenko, Mob Boss",        "winner": true  },
                { "name": "Tomasz",     "deck": "Teysa Karlov",            "winner": false }
            ]
        },
        {
            "date": "2022-05-19",
            "players": [
                { "name": "Jagimir",  "deck": "Sygg, River Cutthroat",   "winner": false },
                { "name": "Neobemus", "deck": "The Scarab God",          "winner": true  },
                { "name": "Oliwier",  "deck": "Lazav, the Multifarious", "winner": false },
                { "name": "Yaceek",   "deck": "Sythis, Harvest's Hand",  "winner": false }
            ]
        },
        {
            "date": "2022-06-02",
            "players": [
                { "name": "Aleksander", "deck": "Strefan, Maurer Progenitor", "winner": false },
                { "name": "Jagimir",    "deck": "Sygg, River Cutthroat",       "winner": true  },
                { "name": "Neobemus",   "deck": "Marwyn, the Nurturer",        "winner": false },
                { "name": "Oliwier",    "deck": "Lazav, the Multifarious",     "winner": false }
            ]
        },
        {
            "date": "2022-06-02",
            "players": [
                { "name": "Aleksander", "deck": "Strefan, Maurer Progenitor", "winner": false },
                { "name": "Jagimir",    "deck": "Sygg, River Cutthroat",      "winner": false },
                { "name": "Neobemus",   "deck": "Marwyn, the Nurturer",       "winner": false },
                { "name": "Oliwier",    "deck": "Lazav, the Multifarious",    "winner": true  }
            ]
        },
        {
            "date": "2022-06-16",
            "players": [
                { "name": "Neobemus", "deck": "Jared Carthalion, True Heir", "winner": true  },
                { "name": "Oliwier",  "deck": "Lazav, the Multifarious",     "winner": false },
                { "name": "Yaceek",   "deck": "Wilhelt, the Rotcleaver",     "winner": false }
            ]
        },
        {
            "date": "2022-06-16",
            "players": [
                { "name": "Neobemus", "deck": "Jared Carthalion, True Heir", "winner": true  },
                { "name": "Oliwier",  "deck": "Lazav, the Multifarious",     "winner": false },
                { "name": "Yaceek",   "deck": "Wilhelt, the Rotcleaver",     "winner": false }
            ]
        },
        {
            "date": "2022-06-30",
            "players": [
                { "name": "Jagimir",  "deck": "Sygg, River Cutthroat",     "winner": false },
                { "name": "Neobemus", "deck": "Yawgmoth, Thran Physician", "winner": true  },
                { "name": "Oliwier",  "deck": "Slimefoot, the Stowaway",   "winner": false },
                { "name": "Yaceek",  "deck": "Zada, Hedron Grinder",       "winner": false }
            ]
        },
        {
            "date": "2022-07-06",
            "players": [
                { "name": "Kuba",     "deck": "Marwyn, the Nurturer",     "winner": false },
                { "name": "Neobemus", "deck": "Naban, Dean of Iteration", "winner": false },
                { "name": "Tomasz",   "deck": "Teysa Karlov",             "winner": false },
                { "name": "Yaceek",   "deck": "Zada, Hedron Grinder",     "winner": true  }
            ]
        },
        {
            "date": "2022-07-06",
            "players": [
                { "name": "Kuba",     "deck": "Marwyn, the Nurturer",          "winner": true  },
                { "name": "Neobemus", "deck": "Kozilek, the Great Distortion", "winner": false },
                { "name": "Tomasz",   "deck": "Anje Falkenrath",               "winner": false },
                { "name": "Yaceek",   "deck": "Toshiro Umezawa",               "winner": false }
            ]
        },
        {
            "date": "2022-07-06",
            "players": [
                { "name": "Kuba",     "deck": "Marwyn, the Nurturer",  "winner": false },
                { "name": "Neobemus", "deck": "Feather, the Redeemed", "winner": true  },
                { "name": "Tomasz",   "deck": "Anje Falkenrath",       "winner": false },
                { "name": "Yaceek",   "deck": "Toshiro Umezawa",       "winner": false }
            ]
        },
        {
            "date": "2022-07-07",
            "players": [
                { "name": "Jagimir",  "deck": "Sygg, River Cutthroat",                                    "winner": false },
                { "name": "Neobemus", "deck": "Hogaak, Arisen Necropolis",                                "winner": false },
                { "name": "Oliwier",  "deck": "Slimefoot, the Stowaway",                                  "winner": false },
                { "name": "Yaceek",   "deck": "Rograkh, Son of Rohgahh + Ardenn, Intrepid Archaeologist", "winner": true  }
            ]
        },
        {
            "date": "2022-07-07",
            "players": [
                { "name": "Jagimir",  "deck": "Chulane, Teller of Tales",                                 "winner": false },
                { "name": "Neobemus", "deck": "Marwyn, the Nurturer",                                     "winner": true  },
                { "name": "Yaceek",   "deck": "Rograkh, Son of Rohgahh + Ardenn, Intrepid Archaeologist", "winner": false }
            ]
        },
        {
            "date": "2022-09-06",
            "players": [
                { "name": "Jagimir",  "deck": "Sygg, River Cutthroat",      "winner": false },
                { "name": "Neobemus", "deck": "Heliod, Sun-Crowned",        "winner": true  },
                { "name": "Oliwier",  "deck": "Slimefoot, the Stowaway",    "winner": false },
                { "name": "Yaceek",   "deck": "Strefan, Maurer Progenitor", "winner": false }
            ]
        },
        {
            "date": "2022-09-06",
            "players": [
                { "name": "Jagimir",  "deck": "Sygg, River Cutthroat",      "winner": false },
                { "name": "Neobemus", "deck": "Kalamax, the Stormsire",     "winner": true  },
                { "name": "Yaceek",   "deck": "Strefan, Maurer Progenitor", "winner": false }
            ]
        },
        {
            "date": "2022-09-22",
            "players": [
                { "name": "Aleksander", "deck": "Anhelo, the Painter",       "winner": true  },
                { "name": "Jagimir",    "deck": "Chulane, Teller of Tales",  "winner": false },
                { "name": "Neobemus",   "deck": "Hogaak, Arisen Necropolis", "winner": false },
                { "name": "Yaceek",     "deck": "Wilhelt, the Rotcleaver",   "winner": false }
            ]
        },
        {
            "date": "2022-09-30",
            "players": [
                { "name": "Jagimir",  "deck": "Alela, Artful Provocateur", "winner": false },
                { "name": "Neobemus", "deck": "Edric, Spymaster of Trest", "winner": true  },
                { "name": "Tomasz",   "deck": "Teysa Karlov",              "winner": false },
                { "name": "Yaceek",   "deck": "Toshiro Umezawa",           "winner": false }
            ]
        },
        {
            "date": "2022-09-30",
            "players": [
                { "name": "Jagimir",  "deck": "Alela, Artful Provocateur",   "winner": false },
                { "name": "Neobemus", "deck": "Jared Carthalion, True Heir", "winner": false },
                { "name": "Tomasz",   "deck": "Teysa Karlov",                "winner": true  },
                { "name": "Yaceek",   "deck": "Toshiro Umezawa",             "winner": false }
            ]
        },
        {
            "date": "2022-10-06",
            "players": [
                { "name": "Jagimir",  "deck": "Alela, Artful Provocateur",     "winner": true  },
                { "name": "Neobemus", "deck": "Kozilek, the Great Distortion", "winner": false },
                { "name": "Tomasz",   "deck": "Anje Falkenrath",               "winner": false },
                { "name": "Yaceek",   "deck": "Wilhelt, the Rotcleaver",       "winner": false }
            ]
        },
        {
            "date": "2022-10-06",
            "players": [
                { "name": "Jagimir",  "deck": "Alela, Artful Provocateur",     "winner": false },
                { "name": "Neobemus", "deck": "Kozilek, the Great Distortion", "winner": false },
                { "name": "Tomasz",   "deck": "Teysa Karlov",                  "winner": true  },
                { "name": "Yaceek",   "deck": "Wilhelt, the Rotcleaver",       "winner": false }
            ]
        },
        {
            "date": "2022-10-16",
            "players": [
                { "name": "Aleksander", "deck": "Anhelo, the Painter",  "winner": false },
                { "name": "Neobemus",   "deck": "Heliod, Sun-Crowned",  "winner": true  },
                { "name": "Tomasz",     "deck": "Teysa Karlov",         "winner": false },
                { "name": "Yaceek",     "deck": "Zada, Hedron Grinder", "winner": false }
            ]
        },
        {
            "date": "2022-10-16",
            "players": [
                { "name": "Aleksander", "deck": "Anhelo, the Painter",  "winner": true  },
                { "name": "Neobemus",   "deck": "Ghen, Arcanum Weaver", "winner": false },
                { "name": "Tomasz",     "deck": "Teysa Karlov",         "winner": false },
                { "name": "Yaceek",     "deck": "Zada, Hedron Grinder", "winner": false }
            ]
        },
        {
            "date": "2022-10-26",
            "players": [
                { "name": "Aleksander", "deck": "Zellix, Sanity Flayer + Haunted One", "winner": true  },
                { "name": "Jagimir",    "deck": "Alela, Artful Provocateur",           "winner": false },
                { "name": "Neobemus",   "deck": "Marwyn, the Nurturer",                "winner": false },
                { "name": "Yaceek",     "deck": "Niv-Mizzet, Parun",                   "winner": false }
            ]
        },
        {
            "date": "2022-10-30",
            "players": [
                { "name": "Aleksander", "deck": "Dihada, Binder of Wills",   "winner": false },
                { "name": "Neobemus",   "deck": "Hogaak, Arisen Necropolis", "winner": true  },
                { "name": "Tomasz",     "deck": "Anje Falkenrath",           "winner": false }
            ]
        },
        {
            "date": "2022-10-30",
            "players": [
                { "name": "Aleksander", "deck": "Dihada, Binder of Wills",   "winner": true  },
                { "name": "Neobemus",   "deck": "Hogaak, Arisen Necropolis", "winner": false },
                { "name": "Tomasz",     "deck": "Teysa Karlov",              "winner": false }
            ]
        },
        {
            "date": "2022-11-03",
            "players": [
                { "name": "Aleksander", "deck": "Anhelo, the Painter",       "winner": false },
                { "name": "Jagimir",    "deck": "Alela, Artful Provocateur", "winner": true  },
                { "name": "Neobemus",   "deck": "The Scarab God",            "winner": false },
                { "name": "Tomasz",     "deck": "Teysa Karlov",              "winner": false }
            ]
        },
        {
            "date": "2022-11-03",
            "players": [
                { "name": "Aleksander", "deck": "Anhelo, the Painter",      "winner": false },
                { "name": "Jagimir",    "deck": "Chulane, Teller of Tales", "winner": false },
                { "name": "Neobemus",   "deck": "The Scarab God",           "winner": false },
                { "name": "Tomasz",     "deck": "Teysa Karlov",             "winner": true  }
            ]
        },
        {
            "date": "2022-11-09",
            "players": [
                { "name": "Aleksander", "deck": "Zellix, Sanity Flayer + Haunted One", "winner": false },
                { "name": "Jagimir",    "deck": "Arixmethes, Slumbering Isle",         "winner": false },
                { "name": "Neobemus",   "deck": "Kozilek, the Great Distortion",       "winner": false },
                { "name": "Yaceek",     "deck": "Zada, Hedron Grinder",                "winner": true  }
            ]
        },
        {
            "date": "2022-11-09",
            "players": [
                { "name": "Aleksander", "deck": "Zellix, Sanity Flayer + Haunted One", "winner": false },
                { "name": "Jagimir",    "deck": "Arixmethes, Slumbering Isle",         "winner": false },
                { "name": "Neobemus",   "deck": "Heliod, Sun-Crowned",                 "winner": true  },
                { "name": "Yaceek",     "deck": "Toshiro Umezawa",                     "winner": false }
            ]
        },

        {
            "date": "2022-11-12",
            "players": [
                { "name": "Aleksander", "deck": "Dihada, Binder of Wills",     "winner": true  },
                { "name": "Jagimir",    "deck": "Arixmethes, Slumbering Isle", "winner": false },
                { "name": "Neobemus",   "deck": "Jared Carthalion, True Heir", "winner": false },
                { "name": "Tomasz",     "deck": "Mishra, Eminent One",         "winner": false }
            ]
        },
        {
            "date": "2022-11-12",
            "players": [
                { "name": "Aleksander", "deck": "Dihada, Binder of Wills",  "winner": false },
                { "name": "Jagimir",    "deck": "Sygg, River Cutthroat",    "winner": false },
                { "name": "Neobemus",   "deck": "Kwain, Itinerant Meddler", "winner": true  },
                { "name": "Tomasz",     "deck": "Mishra, Eminent One",      "winner": false }
            ]
        },
        {
            "date": "2022-11-20",
            "players": [
                { "name": "Aleksander", "deck": "Imotekh the Stormlord",   "winner": true  },
                { "name": "Neobemus",   "deck": "The First Sliver",        "winner": false },
                { "name": "Tomasz",     "deck": "Mishra, Eminent One",     "winner": false },
                { "name": "Yaceek",     "deck": "Wilhelt, the Rotcleaver", "winner": false }
            ]
        },
        {
            "date": "2022-11-27",
            "players": [
                { "name": "Aleksander", "deck": "Magus Lucea Kane",           "winner": false },
                { "name": "Neobemus",   "deck": "Karametra, God of Harvests", "winner": false },
                { "name": "Tomasz",     "deck": "Ashnod the Uncaring",        "winner": false },
                { "name": "Yaceek",     "deck": "Sythis, Harvest's Hand",     "winner": true  }
            ]
        },
        {
            "date": "2022-12-04",
            "players": [
                { "name": "Aleksander", "deck": "Abaddon the Despoiler",      "winner": false },
                { "name": "Neobemus",   "deck": "Karametra, God of Harvests", "winner": false },
                { "name": "Oliwier",    "deck": "Lazav, the Multifarious",    "winner": false },
                { "name": "Tomasz",     "deck": "Ashnod the Uncaring",        "winner": true }
            ]
        },
        {
            "date": "2022-12-08",
            "players": [
                { "name": "Aleksander", "deck": "Szarekh, the Silent King",    "winner": false },
                { "name": "Jagimir",    "deck": "Arixmethes, Slumbering Isle", "winner": true  },
                { "name": "Neobemus",   "deck": "Karametra, God of Harvests",  "winner": false },
                { "name": "Yaceek",     "deck": "Brago, King Eternal",         "winner": false }
            ]
        },
        {
            "date": "2022-12-14",
            "players": [
                { "name": "Aleksander", "deck": "Dihada, Binder of Wills",                    "winner": false },
                { "name": "Kuba",       "deck": "Karlach, Fury of Avernus + Hardy Outlander", "winner": false },
                { "name": "Neobemus",   "deck": "Kalamax, the Stormsire",                     "winner": true  },
                { "name": "Tomasz",     "deck": "Ashnod the Uncaring",                        "winner": false }
            ]
        },
        {
            "date": "2022-12-14",
            "players": [
                { "name": "Aleksander", "deck": "Anhelo, the Painter",                        "winner": false },
                { "name": "Kuba",       "deck": "Karlach, Fury of Avernus + Hardy Outlander", "winner": false },
                { "name": "Neobemus",   "deck": "Krenko, Mob Boss",                           "winner": true  },
                { "name": "Tomasz",     "deck": "Anje Falkenrath",                            "winner": false }
            ]
        },
        {
            "date": "2022-12-23",
            "players": [
                { "name": "Aleksander", "deck": "Zellix, Sanity Flayer + Haunted One", "winner": true  },
                { "name": "Jagimir",    "deck": "Urza, Chief Artificer",               "winner": false },
                { "name": "Kuba",       "deck": "Kadena, Slinking Sorcerer",           "winner": false },
                { "name": "Tomasz",     "deck": "Ashnod the Uncaring",                 "winner": false }
            ]
        },
        {
            "date": "2022-12-23",
            "players": [
                { "name": "Aleksander", "deck": "Dihada, Binder of Wills",                    "winner": false },
                { "name": "Jagimir",    "deck": "Urza, Chief Artificer",                      "winner": false },
                { "name": "Kuba",       "deck": "Karlach, Fury of Avernus + Hardy Outlander", "winner": true  },
                { "name": "Tomasz",     "deck": "Teysa Karlov",                               "winner": false }
            ]
        },
        {
            "date": "2023-01-04",
            "players": [
                { "name": "Aleksander", "deck": "Anhelo, the Painter",       "winner": false },
                { "name": "Jagimir",    "deck": "Urza, Chief Artificer",     "winner": false },
                { "name": "Neobemus",   "deck": "Hogaak, Arisen Necropolis", "winner": true  },
                { "name": "Tomasz",     "deck": "Teysa Karlov",              "winner": false }
            ]
        },
        {
            "date": "2023-01-04",
            "players": [
                { "name": "Aleksander", "deck": "Dihada, Binder of Wills",   "winner": false },
                { "name": "Jagimir",    "deck": "Urza, Chief Artificer",     "winner": false },
                { "name": "Neobemus",   "deck": "Yawgmoth, Thran Physician", "winner": true  },
                { "name": "Tomasz",     "deck": "Teysa Karlov",              "winner": false }
            ]
        },
        {
            "date": "2023-01-04",
            "players": [
                { "name": "Aleksander", "deck": "Dihada, Binder of Wills",  "winner": false },
                { "name": "Jagimir",    "deck": "Urza, Chief Artificer",    "winner": false },
                { "name": "Neobemus",   "deck": "Kwain, Itinerant Meddler", "winner": true  },
                { "name": "Tomasz",     "deck": "Teysa Karlov",             "winner": false }
            ]
        },
        {
            "date": "2023-01-15",
            "players": [
                { "name": "Aleksander", "deck": "Imotekh the Stormlord",         "winner": false },
                { "name": "Neobemus",   "deck": "Kozilek, the Great Distortion", "winner": false },
                { "name": "Tomasz",     "deck": "Anje Falkenrath",               "winner": false },
                { "name": "Yaceek",     "deck": "Carth the Lion",               "winner": true  }
            ]
        },
        {
            "date": "2023-01-15",
            "players": [
                { "name": "Aleksander", "deck": "Zellix, Sanity Flayer + Haunted One", "winner": true  },
                { "name": "Neobemus",   "deck": "Edric, Spymaster of Trest",           "winner": false },
                { "name": "Tomasz",     "deck": "Teysa Karlov",                        "winner": false },
                { "name": "Yaceek",     "deck": "Wilhelt, the Rotcleaver",             "winner": false }
            ]
        },
        {
            "date": "2023-01-22",
            "players": [
                { "name": "Aleksander", "deck": "Zellix, Sanity Flayer + Haunted One", "winner": false },
                { "name": "Jagimir",    "deck": "Arixmethes, Slumbering Isle",         "winner": true  },
                { "name": "Tomasz",     "deck": "Ashnod the Uncaring",                 "winner": false },
                { "name": "Yaceek",     "deck": "Sythis, Harvest's Hand",              "winner": false }
            ]
        },
        {
            "date": "2023-01-29",
            "players": [
                { "name": "Aleksander", "deck": "Marneus Calgar",              "winner": true  },
                { "name": "Tomasz",     "deck": "Lathril, Blade of the Elves", "winner": false },
                { "name": "Neobemus",   "deck": "Ramses, Assassin Lord",       "winner": false }
            ]
        },
        {
            "date": "2023-01-29",
            "players": [
                { "name": "Aleksander", "deck": "Anhelo, the Painter",         "winner": false },
                { "name": "Jagimir",    "deck": "Alela, Artful Provocateur",   "winner": false },
                { "name": "Tomasz",     "deck": "Ashnod the Uncaring",         "winner": true  },
                { "name": "Neobemus",   "deck": "Jared Carthalion, True Heir", "winner": false }
            ]
        },

        {
            "date": "2023-02-03",
            "players": [
                { "name": "Aleksander", "deck": "Ghyrson Starn, Kelermorph",                  "winner": false },
                { "name": "Kuba",       "deck": "Karlach, Fury of Avernus + Hardy Outlander", "winner": true  },
                { "name": "Neobemus",   "deck": "Ramses, Assassin Lord",                      "winner": false },
                { "name": "Oliwier",    "deck": "Lazav, the Multifarious",                    "winner": false }
            ]
        },
        {
            "date": "2023-02-03",
            "players": [
                { "name": "Aleksander", "deck": "Ghyrson Starn, Kelermorph", "winner": false },
                { "name": "Kuba",       "deck": "Kadena, Slinking Sorcerer", "winner": false },
                { "name": "Neobemus",   "deck": "Hallar, the Firefletcher",  "winner": true  },
                { "name": "Oliwier",    "deck": "Muldrotha, the Gravetide",  "winner": false }
            ]
        },
        {
            "date": "2023-02-03",
            "players": [
                { "name": "Aleksander", "deck": "Ghyrson Starn, Kelermorph",                  "winner": false },
                { "name": "Kuba",       "deck": "Karlach, Fury of Avernus + Hardy Outlander", "winner": true  },
                { "name": "Neobemus",   "deck": "Hallar, the Firefletcher",                   "winner": false },
                { "name": "Oliwier",    "deck": "Muldrotha, the Gravetide",                   "winner": false }
            ]
        },
        {
            "date": "2023-02-12",
            "players": [
                { "name": "Jagimir",  "deck": "Arixmethes, Slumbering Isle", "winner": false },
                { "name": "Neobemus", "deck": "Naban, Dean of Iteration",    "winner": false },
                { "name": "Tomasz",   "deck": "Ashnod the Uncaring",         "winner": true  }
            ]
        },
        {
            "date": "2023-02-12",
            "players": [
                { "name": "Jagimir",  "deck": "Arixmethes, Slumbering Isle", "winner": false },
                { "name": "Neobemus", "deck": "Naban, Dean of Iteration",    "winner": false },
                { "name": "Tomasz",   "deck": "Teysa Karlov",                "winner": true  }
            ]
        },
        {
            "date": "2023-02-26",
            "players": [
                { "name": "Aleksander", "deck": "Magus Lucea Kane",      "winner": false },
                { "name": "Neobemus",   "deck": "Feather, the Redeemed", "winner": false },
                { "name": "Tomasz",     "deck": "Anje Falkenrath",       "winner": true  }
            ]
        },
        {
            "date": "2023-02-26",
            "players": [
                { "name": "Aleksander", "deck": "Ghyrson Starn, Kelermorph",   "winner": false },
                { "name": "Jagimir",    "deck": "Arixmethes, Slumbering Isle", "winner": false },
                { "name": "Neobemus",   "deck": "Edric, Spymaster of Trest",   "winner": true  },
                { "name": "Tomasz",     "deck": "Ashnod the Uncaring",         "winner": false }
            ]
        },
        {
            "date": "2023-02-26",
            "players": [
                { "name": "Aleksander", "deck": "Ghyrson Starn, Kelermorph",   "winner": true  },
                { "name": "Jagimir",    "deck": "Arixmethes, Slumbering Isle", "winner": false },
                { "name": "Neobemus",   "deck": "Karametra, God of Harvests",  "winner": false },
                { "name": "Tomasz",     "deck": "Lathril, Blade of the Elves", "winner": false }
            ]
        },
        {
            "date": "2023-03-16",
            "players": [
                { "name": "Aleksander", "deck": "Dihada, Binder of Wills", "winner": true  },
                { "name": "Jagimir",    "deck": "Anje Falkenrath",         "winner": false },
                { "name": "Kuba",       "deck": "Kelsien, the Plague",     "winner": false },
                { "name": "Tomasz",     "deck": "Ashnod the Uncaring",     "winner": false }
            ]
        },
        {
            "date": "2023-03-16",
            "players": [
                { "name": "Aleksander", "deck": "Ghyrson Starn, Kelermorph", "winner": false },
                { "name": "Jagimir",    "deck": "Kadena, Slinking Sorcerer", "winner": true  },
                { "name": "Kuba",       "deck": "Kelsien, the Plague",       "winner": false },
                { "name": "Tomasz",     "deck": "Teysa Karlov",              "winner": false }
            ]
        },
        {
            "date": "2023-03-24",
            "players": [
                { "name": "Jagimir",  "deck": "Saheeli, the Gifted",      "winner": false },
                { "name": "Kuba",     "deck": "Kelsien, the Plague",      "winner": true  },
                { "name": "Neobemus", "deck": "Krenko, Mob Boss",         "winner": false },
                { "name": "Oliwier",  "deck": "Muldrotha, the Gravetide", "winner": false }
            ]
        },
        {
            "date": "2023-03-24",
            "players": [
                { "name": "Jagimir",  "deck": "Saheeli, the Gifted",      "winner": false },
                { "name": "Kuba",     "deck": "Kelsien, the Plague",      "winner": false },
                { "name": "Neobemus", "deck": "Kwain, Itinerant Meddler", "winner": true  },
                { "name": "Oliwier",  "deck": "Muldrotha, the Gravetide", "winner": false }
            ]
        },
        {
            "date": "2023-03-30",
            "players": [
                { "name": "Aleksander", "deck": "Zellix, Sanity Flayer + Haunted One", "winner": true  },
                { "name": "Jagimir",    "deck": "Urza, Chief Artificer",               "winner": false },
                { "name": "Neobemus",   "deck": "Ramses, Assassin Lord",               "winner": false },
                { "name": "Tomasz",     "deck": "Ashnod the Uncaring",                 "winner": false }
            ]
        },
        {
            "date": "2023-03-30",
            "players": [
                { "name": "Aleksander", "deck": "Ghyrson Starn, Kelermorph", "winner": true  },
                { "name": "Jagimir",    "deck": "Saheeli, the Gifted",       "winner": false },
                { "name": "Neobemus",   "deck": "Ghen, Arcanum Weaver",      "winner": false },
                { "name": "Tomasz",     "deck": "Anje Falkenrath",           "winner": false }
            ]
        },
        {
            "date": "2023-04-06",
            "players": [
                { "name": "Aleksander", "deck": "Ghyrson Starn, Kelermorph",                  "winner": true  },
                { "name": "Jagimir",    "deck": "Archelos, Lagoon Mystic",                    "winner": false },
                { "name": "Kuba",       "deck": "Karlach, Fury of Avernus + Hardy Outlander", "winner": false },
                { "name": "Yaceek",     "deck": "Niv-Mizzet, Parun",                          "winner": false }
            ]
        },
        {
            "date": "2023-04-06",
            "players": [
                { "name": "Aleksander", "deck": "Zellix, Sanity Flayer + Haunted One", "winner": false },
                { "name": "Jagimir", "deck": "Archelos, Lagoon Mystic",                "winner": false },
                { "name": "Kuba", "deck": "Kelsien, the Plague",                       "winner": false },
                { "name": "Yaceek", "deck": "Zada, Hedron Grinder",                    "winner": true  }
            ]
        },

        {
            "date": "2022-10-04",
            "players": [
                { "name": "Brodacz", "deck": "Kyler, Sigardian Emissary", "winner": false },
                { "name": "David",   "deck": "Jared Carthalion",          "winner": false },
                { "name": "Sasha",   "deck": "Ragavan, Nimble Pilferer",  "winner": true  },
                { "name": "Yaceek",  "deck": "Toshiro Umezawa",           "winner": false }
            ]
        },
        {
            "date": "2022-10-04",
            "players": [
                { "name": "Brodacz", "deck": "Kyler, Sigardian Emissary",   "winner": false },
                { "name": "David",   "deck": "Jared Carthalion",            "winner": false },
                { "name": "Sasha",   "deck": "Aesi, Tyrant of Gyre Strait", "winner": true  },
                { "name": "Yaceek",  "deck": "Wilhelt, the Rotcleaver",     "winner": false }
            ]
        },
        {
            "date": "2022-10-18",
            "players": [
                { "name": "GothLoli", "deck": "Rin and Seri, Inseparable", "winner": false },
                { "name": "Marko",    "deck": "???",                       "winner": false },
                { "name": "Phillipe", "deck": "Kalamax, the Stormsire",    "winner": true  },
                { "name": "Yaceek",   "deck": "Zada, Hedron Grinder",      "winner": false }
            ]
        },
        {
            "date": "2022-10-18",
            "players": [
                { "name": "GothLoli", "deck": "Rin and Seri, Inseparable",    "winner": false },
                { "name": "Marko",    "deck": "Satoru Umezawa",               "winner": true  },
                { "name": "Phillipe", "deck": "Tatsunari, Toad Rider",        "winner": false },
                { "name": "Yaceek",   "deck": "Siona, Captain of the Pyleas", "winner": false }
            ]
        },
        {
            "date": "2022-10-18",
            "players": [
                { "name": "GothLoli", "deck": "Rin and Seri, Inseparable",    "winner": false },
                { "name": "Marko",    "deck": "???",                          "winner": false },
                { "name": "Phillipe", "deck": "Beledros Witherbloom",         "winner": true  },
                { "name": "Yaceek",   "deck": "Siona, Captain of the Pyleas", "winner": true  }
            ]
        },
        {
            "date": "2022-11-01",
            "players": [
                { "name": "Brodacz",  "deck": "Kitt Kanto, Mayhem Diva",   "winner": false },
                { "name": "Marko",    "deck": "Imotekh the Stormlord",     "winner": false },
                { "name": "Phillipe", "deck": "Be'lakor, the Dark Master", "winner": false },
                { "name": "Yaceek",   "deck": "Anje Falkenrath",           "winner": true  }
            ]
        },
        {
            "date": "2022-11-01",
            "players": [
                { "name": "Brodacz",  "deck": "Kitt Kanto, Mayhem Diva",    "winner": false },
                { "name": "Marko",    "deck": "Shanna, Purifying Blade",    "winner": false },
                { "name": "Phillipe", "deck": "Xyris, the Writhing Storm",  "winner": false },
                { "name": "Yaceek",   "deck": "Teshar, Ancestor's Apostle", "winner": true  }
            ]
        },
        {
            "date": "2022-11-01",
            "players": [
                { "name": "Ina",      "deck": "Yuriko, the Tiger's Shadow", "winner": false },
                { "name": "Marko",    "deck": "Breena, the Demagogue",      "winner": true  },
                { "name": "Phillipe", "deck": "Beledros Witherbloom",       "winner": false },
                { "name": "Yaceek",   "deck": "Brago, King Eternal",        "winner": false }
            ]
        },
        {
            "date": "2022-11-01",
            "players": [
                { "name": "Ina",      "deck": "Klauth, Unrivaled Ancient", "winner": false },
                { "name": "Marko",    "deck": "Ghired, Conclave Exile",    "winner": false },
                { "name": "Phillipe", "deck": "Ratadrabik of Urborg",      "winner": false },
                { "name": "Yaceek",   "deck": "Brago, King Eternal",       "winner": true  }
            ]
        },
        {
            "date": "2022-11-08",
            "players": [
                { "name": "Tim",    "deck": "Henzie \"Toolbox\" Torre",     "winner": true  },
                { "name": "Mirko",  "deck": "Inniaz, the Gale Force",       "winner": false },
                { "name": "Yaceek", "deck": "Siona, Captain of the Pyleas", "winner": false }
            ]
        },
        {
            "date": "2022-11-08",
            "players": [
                { "name": "Tim",    "deck": "Yuriko, the Tiger's Shadow",   "winner": false },
                { "name": "Mirko",  "deck": "Kardur, Doomscourge",          "winner": false },
                { "name": "Yaceek", "deck": "Siona, Captain of the Pyleas", "winner": true  }
            ]
        },
        {
            "date": "2022-11-08",
            "players": [
                { "name": "Mirko",  "deck": "Inniaz, the Gale Force",   "winner": false },
                { "name": "Marko",  "deck": "Imotekh the Stormlord",    "winner": false },
                { "name": "Janek",  "deck": "Ziatora, the Incinerator", "winner": false },
                { "name": "Yaceek", "deck": "Niv-Mizzet, Parun",        "winner": true  }
            ]
        },
        {
            "date": "2022-11-08",
            "players": [
                { "name": "Mirko",  "deck": "Kardur, Doomscourge",                                      "winner": false },
                { "name": "Marko",  "deck": "Shanna, Purifying Blade",                                  "winner": false },
                { "name": "Janek",  "deck": "Torens, Fist of the Angels",                               "winner": true  },
                { "name": "Yaceek", "deck": "Rograkh, Son of Rohgahh + Ardenn, Intrepid Archaeologist", "winner": false }
            ]
        },
        {
            "date": "2022-11-18",
            "players": [
                { "name": "Tim",    "deck": "Atraxa, Praetors' Voice",                                  "winner": false },
                { "name": "Mirko",  "deck": "Kardur, Doomscourge",                                      "winner": false },
                { "name": "Yaceek", "deck": "Rograkh, Son of Rohgahh + Ardenn, Intrepid Archaeologist", "winner": true  }
            ]
        },
        {
            "date": "2022-11-18",
            "players": [
                { "name": "Tim",    "deck": "Yuriko, the Tiger's Shadow", "winner": false },
                { "name": "Mirko",  "deck": "Inniaz, the Gale Force",     "winner": true  },
                { "name": "Yaceek", "deck": "Toshiro Umezawa",            "winner": false }
            ]
        },
        {
            "date": "2022-11-18",
            "players": [
                { "name": "Tim",    "deck": "Kenrith, the Returned King", "winner": false },
                { "name": "Mirko",  "deck": "Mayael the Anima",           "winner": false },
                { "name": "Yaceek", "deck": "Niv-Mizzet, Parun",          "winner": true  }
            ]
        },
        {
            "date": "2022-12-06",
            "players": [
                { "name": "Mirko",  "deck": "Braids, Arisen Nightmare", "winner": false },
                { "name": "Dave",   "deck": "Mayael the Anima",         "winner": false },
                { "name": "Tim",    "deck": "Henzie \"Toolbox\" Torre", "winner": false },
                { "name": "Yaceek", "deck": "Zada, Hedron Grinder",     "winner": true  }
            ]
        },
        {
            "date": "2022-12-06",
            "players": [
                { "name": "Mirko",  "deck": "Braids, Arisen Nightmare",   "winner": false },
                { "name": "Dave",   "deck": "Mayael the Anima",           "winner": false },
                { "name": "Tim",    "deck": "Kenrith, the Returned King", "winner": false },
                { "name": "Yaceek", "deck": "Zada, Hedron Grinder",       "winner": true  }
            ]
        },
        {
            "date": "2022-12-06",
            "players": [
                { "name": "Mirko",  "deck": "Oskar, Rubbish Reclaimer",   "winner": false },
                { "name": "Dave",   "deck": "Mayael the Anima",           "winner": true  },
                { "name": "Tim",    "deck": "Kenrith, the Returned King", "winner": false },
                { "name": "Yaceek", "deck": "Brago, King Eternal",        "winner": false }
            ]
        },
        {
            "date": "2022-12-06",
            "players": [
                { "name": "Mirko",  "deck": "Braids, Arisen Nightmare",                                 "winner": true  },
                { "name": "Tim",    "deck": "Henzie \"Toolbox\" Torre",                                 "winner": false },
                { "name": "Yaceek", "deck": "Rograkh, Son of Rohgahh + Ardenn, Intrepid Archaeologist", "winner": false }
            ]
        },
        {
            "date": "2023-01-03",
            "players": [
                { "name": "Luzak",    "deck": "Captain N'ghathrod",              "winner": false },
                { "name": "Artem",    "deck": "Liberator, Urza's Battlethopter", "winner": false },
                { "name": "Świerzak", "deck": "Millicent, Restless Revenant",    "winner": false },
                { "name": "Yaceek",   "deck": "Siona, Captain of the Pyleas",    "winner": true  }
            ]
        },
        {
            "date": "2023-01-03",
            "players": [
                { "name": "Luzak",  "deck": "Hazezon, Shaper of Sand",                           "winner": false },
                { "name": "Artem",  "deck": "Ludevic, Necro-Alchemist",                          "winner": false },
                { "name": "Tim",    "deck": "Cecily, Haunted Mage + Elmar, Ulvenwald Informant", "winner": false },
                { "name": "Yaceek", "deck": "Niv-Mizzet, Parun",                                 "winner": true  }
            ]
        },
        {
            "date": "2023-01-10",
            "players": [
                { "name": "Długowłosy", "deck": "Lathril, Blade of the Elves", "winner": false },
                { "name": "Nina",       "deck": "Sefris of the Hidden Ways",   "winner": false },
                { "name": "Phillipe",   "deck": "Toralf, God of Fury",         "winner": true  },
                { "name": "Yaceek",     "deck": "Carth the Lion",              "winner": false }
            ]
        },
        {
            "date": "2023-01-10",
            "players": [
                { "name": "Długowłosy", "deck": "Firkraag, Cunning Instigator", "winner": false },
                { "name": "Nina",       "deck": "Orvar, the All-Form",          "winner": false },
                { "name": "Phillipe",   "deck": "Satoru Umezawa",               "winner": true  },
                { "name": "Yaceek",     "deck": "Carth the Lion",               "winner": false } 
            ]
        },
        {
            "date": "2023-01-10",
            "players": [
                { "name": "Długowłosy", "deck": "Lathril, Blade of the Elves", "winner": false },
                { "name": "Nina",       "deck": "Sefris of the Hidden Ways",   "winner": false },
                { "name": "Phillipe",   "deck": "Beledros Witherbloom",        "winner": true  },
                { "name": "Yaceek",     "deck": "Toshiro Umezawa",             "winner": false }
            ]
        },
        {
            "date": "2023-01-17",
            "players": [
                { "name": "Artem",  "deck": "The Most Dangerous Gamer",  "winner": false },
                { "name": "Tim",    "deck": "Sefris of the Hidden Ways", "winner": true  },
                { "name": "Lukas",  "deck": "The Ur-Dragon",             "winner": false },
                { "name": "Yaceek", "deck": "Carth the Lion",            "winner": false }
            ]
        },
        {
            "date": "2023-01-17",
            "players": [
                { "name": "Artem",  "deck": "Losheel, Clockwork Scholar",  "winner": false },
                { "name": "Tim",    "deck": "Queen Marchesa",              "winner": false },
                { "name": "Lukas",  "deck": "Captain N'ghathrod",          "winner": false },
                { "name": "Ivan",   "deck": "Aesi, Tyrant of Gyre Strait", "winner": true  },
                { "name": "Yaceek", "deck": "Sythis, Harvest's Hand",      "winner": false }
            ]
        },
        {
            "date": "2023-01-17",
            "players": [
                { "name": "Artem",  "deck": "Losheel, Clockwork Scholar", "winner": false },
                { "name": "Tim",    "deck": "Queen Marchesa",             "winner": false },
                { "name": "Lukas",  "deck": "Grand Arbiter Augustin IV",  "winner": false },
                { "name": "Ivan",   "deck": "Kathril, Aspect Warper",     "winner": false },
                { "name": "Yaceek", "deck": "Sythis, Harvest's Hand",     "winner": true  }
            ]
        },
        {
            "date": "2023-01-24",
            "players": [
                { "name": "Artem",  "deck": "Leinore, Autumn Sovereign",   "winner": false },
                { "name": "Klon",   "deck": "Aesi, Tyrant of Gyre Strait", "winner": false },
                { "name": "Yaceek", "deck": "Teshar, Ancestor's Apostle",  "winner": true  }
            ]
        },
        {
            "date": "2023-01-24",
            "players": [
                { "name": "Artem",  "deck": "Leinore, Autumn Sovereign",   "winner": false },
                { "name": "Klon",   "deck": "Aesi, Tyrant of Gyre Strait", "winner": true  },
                { "name": "Yaceek", "deck": "Sythis, Harvest's Hand",      "winner": false }
            ]
        },
        {
            "date": "2023-01-24",
            "players": [
                { "name": "Chandra-fan", "deck": "Breeches, Brazen Plunderer + Kediss, Emberclaw Familiar", "winner": false },
                { "name": "Klon",        "deck": "General Ferrous Rokiric",                                 "winner": false },
                { "name": "Yaceek",      "deck": "Sythis, Harvest's Hand",                                  "winner": true  }
            ]
        },
        {
            "date": "2023-01-24",
            "players": [
                { "name": "Ina",    "deck": "Ragavan, Nimble Pilferer", "winner": true  },
                { "name": "Klon",   "deck": "General Ferrous Rokiric",  "winner": false },
                { "name": "Yaceek", "deck": "Niv-Mizzet, Parun",        "winner": false }
            ]
        },
        {
            "date": "2023-01-31",
            "players": [
                { "name": "Brodacz", "deck": "Slicer, Hired Muscle",        "winner": false },
                { "name": "Luzak",   "deck": "Auntie Blyte, Bad Influence", "winner": false },
                { "name": "Marko",   "deck": "Cadric, Soul Kindler",        "winner": true  },
                { "name": "Yaceek",  "deck": "Niv-Mizzet, Parun",           "winner": false }
            ]
        },
        {
            "date": "2023-01-31",
            "players": [
                { "name": "Brodacz", "deck": "Wilson, Refined Grizzly + Noble Heritage", "winner": false },
                { "name": "Luzak",   "deck": "Auntie Blyte, Bad Influence",              "winner": true  },
                { "name": "Marko",   "deck": "Cadric, Soul Kindler",                     "winner": false },
                { "name": "Yaceek",  "deck": "Niv-Mizzet, Parun",                        "winner": false }
            ]
        },
        {
            "date": "2023-01-31",
            "players": [
                { "name": "Brodacz", "deck": "Wilson, Refined Grizzly + Noble Heritage", "winner": false },
                { "name": "David",   "deck": "Jodah, the Unifier",                       "winner": false },
                { "name": "Yaceek",  "deck": "Carth the Lion",                           "winner": true  }
            ]
        },
        {
            "date": "2023-01-31",
            "players": [
                { "name": "Brodacz", "deck": "Slicer, Hired Muscle",   "winner": false },
                { "name": "David",   "deck": "Ramos, Dragon Engine",  "winner": false },
                { "name": "Yaceek",  "deck": "Sythis, Harvest's Hand", "winner": true  }
            ]
        },
        {
            "date": "2023-02-08",
            "players": [
                { "name": "Artem",    "deck": "Ghired, Conclave Exile", "winner": false },
                { "name": "Phillipe", "deck": "Prosper, Tome-Bound",    "winner": true  },
                { "name": "Marko",    "deck": "Ixhel, Scion of Atraxa", "winner": false },
                { "name": "Yaceek",   "deck": "Brago, King Eternal",    "winner": false }
            ]
        },
        {
            "date": "2023-02-08",
            "players": [
                { "name": "Artem",    "deck": "Ghired, Conclave Exile", "winner": true  },
                { "name": "Phillipe", "deck": "Prosper, Tome-Bound",    "winner": false },
                { "name": "Marko",    "deck": "Ixhel, Scion of Atraxa", "winner": false },
                { "name": "Yaceek",   "deck": "Brago, King Eternal",    "winner": false }
            ]
        },
        {
            "date": "2023-02-08",
            "players": [
                { "name": "Artem",    "deck": "Kiki-Jiki, Mirror Breaker", "winner": false },
                { "name": "Phillipe", "deck": "Beledros Witherbloom",      "winner": true  },
                { "name": "Marko",    "deck": "Shanna, Purifying Blade",   "winner": false },
                { "name": "Yaceek",   "deck": "Zada, Hedron Grinder",      "winner": false }
            ]
        },
        {
            "date": "2023-02-08",
            "players": [
                { "name": "Artem",    "deck": "Kiki-Jiki, Mirror Breaker", "winner": false },
                { "name": "Phillipe", "deck": "Ratadrabik of Urborg",      "winner": false },
                { "name": "Marko",    "deck": "Cadric, Soul Kindler",      "winner": true  },
                { "name": "Yaceek",   "deck": "Zada, Hedron Grinder",      "winner": false }
            ]
        },
        {
            "date": "2023-02-14",
            "players": [
                { "name": "Stefan", "deck": "Razia, Boros Archangel",       "winner": false },
                { "name": "Artem",  "deck": "Kiki-Jiki, Mirror Breaker",    "winner": false },
                { "name": "Tim",    "deck": "Minsc & Boo, Timeless Heroes", "winner": true  },
                { "name": "Yaceek", "deck": "Sythis, Harvest's Hand",       "winner": false }
            ]
        },
        {
            "date": "2023-02-14",
            "players": [
                { "name": "Stefan", "deck": "Razia, Boros Archangel",    "winner": false },
                { "name": "Artem",  "deck": "Kiki-Jiki, Mirror Breaker", "winner": true  },
                { "name": "Tim",    "deck": "Breena, the Demagogue",     "winner": false },
                { "name": "Yaceek", "deck": "Sythis, Harvest's Hand",    "winner": false }
            ]
        },
        {
            "date": "2023-02-14",
            "players": [
                { "name": "Stefan", "deck": "Razia, Boros Archangel",       "winner": false },
                { "name": "Artem",  "deck": "Ghired, Conclave Exile",       "winner": false },
                { "name": "Tim",    "deck": "Minsc & Boo, Timeless Heroes", "winner": false },
                { "name": "Yaceek", "deck": "Zada, Hedron Grinder",         "winner": true  }
            ]
        }
    ]
}
